Flujos de inversión en infraestructuras
…
Vamos a crear un ranking de Países

3. ¿CUALES SON LOS PAÍSES CON MEJORES VALORES DE MEDIA PARA 2018?

data_rank <- goal9t %>% 
  arrange(desc(AverageValue)) %>%
  filter(Year == 2018, !is.na(AverageValue)) 

data_rank$rank = dense_rank(-data_rank$AverageValue) 

data_rank %>%
  select(CountryOrArea, AverageValue, Year, rank) 

## # A tibble: 125 x 4
## # Groups:   Year [1]
##    CountryOrArea                           AverageValue  Year  rank
##    <chr>                                          <dbl> <dbl> <int>
##  1 Developing regions                            61414.  2018     1
##  2 Least Developed Countries (LDCs)              10912.  2018     2
##  3 Landlocked developing countries (LLDCs)        7758.  2018     3
##  4 India                                          7150.  2018     4
##  5 Egypt                                          3913.  2018     5
##  6 Bangladesh                                     2680.  2018     6
##  7 Indonesia                                      2593.  2018     7
##  8 China                                          2591.  2018     8
##  9 Small island developing States (SIDS)          1744.  2018     9
## 10 Brazil                                         1738.  2018    10
## # ... with 115 more rows
…
