Proporción de población cubierta por red móvil
…
## `summarise()` regrouping output by 'Year', 'Measure' (override with `.groups` argument)

data_rank_mobile$rank = dense_rank(-data_rank_mobile$Mean_population_covered_by_mobile_network) 

data_rank_mobile %>%
  select(CountryOrArea, Mean_population_covered_by_mobile_network, Year, rank) %>% arrange(desc(rank))

## Adding missing grouping variables: `Measure`

## # A tibble: 132 x 5
## # Groups:   Year, Measure [1]
##    Measure                    CountryOrArea  Mean_population_covere~  Year  rank
##    <chr>                      <chr>                            <dbl> <dbl> <int>
##  1 Proportion of population ~ Djibouti                           5    2018    88
##  2 Proportion of population ~ Afghanistan                        7    2018    87
##  3 Proportion of population ~ Gambia                             7.5  2018    86
##  4 Proportion of population ~ Angola                             8    2018    85
##  5 Proportion of population ~ South Sudan                       10    2018    84
##  6 Proportion of population ~ Chad                              12    2018    83
##  7 Proportion of population ~ Guinea                            18.5  2018    82
##  8 Proportion of population ~ Solomon Islan~                    20    2018    81
##  9 Proportion of population ~ Burundi                           20.9  2018    80
## 10 Proportion of population ~ Nigeria                           22.3  2018    79
## # ... with 122 more rows
…
